(footprint "PinHeader_1x08_P2.54mm_Vertical" (version 20221018) (generator pcbnew)
  (layer "F.Cu")
  (descr "Through hole straight pin header, 1x08, 2.54mm pitch, single row")
  (tags "Through hole pin header THT 1x08 2.54mm single row")
  (attr through_hole)
  (fp_text reference "REF**" (at 0 -2.33) (layer "F.SilkS")
      (effects (font (size 1 1) (thickness 0.15)))
    (tstamp 36f5edb3-9b59-4722-8398-bebae7dcb35c)
  )
  (fp_text value "PinHeader_1x08_P2.54mm_Vertical" (at 0 20.11) (layer "F.Fab")
      (effects (font (size 1 1) (thickness 0.15)))
    (tstamp d4a9ac10-b1de-47d7-870b-64a03843df14)
  )
  (fp_text user "${REFERENCE}" (at 0 8.89 90) (layer "F.Fab")
      (effects (font (size 1 1) (thickness 0.15)))
    (tstamp ca802a7e-a5b8-4c7c-89d8-05cabf346e2d)
  )
  (fp_line (start -1.33 -1.33) (end 0 -1.33)
    (stroke (width 0.12) (type solid)) (layer "F.SilkS") (tstamp eaed2793-c75a-4291-986d-83255a76cb62))
  (fp_line (start -1.33 0) (end -1.33 -1.33)
    (stroke (width 0.12) (type solid)) (layer "F.SilkS") (tstamp b6b1c983-db3a-4dde-8b2c-e1cae6aee4cc))
  (fp_line (start -1.33 1.27) (end -1.33 19.11)
    (stroke (width 0.12) (type solid)) (layer "F.SilkS") (tstamp a158832c-5ac0-48a1-9de3-660d6a4b2059))
  (fp_line (start -1.33 1.27) (end 1.33 1.27)
    (stroke (width 0.12) (type solid)) (layer "F.SilkS") (tstamp 71fb9fee-cf13-451b-89d0-30f643a19df2))
  (fp_line (start -1.33 19.11) (end 1.33 19.11)
    (stroke (width 0.12) (type solid)) (layer "F.SilkS") (tstamp 8753beda-ae62-463c-b0b1-170295c8a6aa))
  (fp_line (start 1.33 1.27) (end 1.33 19.11)
    (stroke (width 0.12) (type solid)) (layer "F.SilkS") (tstamp ccc4d12f-4e4b-477d-90e2-3bdd9b39ed6e))
  (fp_line (start -1.8 -1.8) (end -1.8 19.55)
    (stroke (width 0.05) (type solid)) (layer "F.CrtYd") (tstamp 4c207e22-d992-4501-8a3d-1988f0353bde))
  (fp_line (start -1.8 19.55) (end 1.8 19.55)
    (stroke (width 0.05) (type solid)) (layer "F.CrtYd") (tstamp 3a163553-8327-4b60-8f9d-96fcefcf82d2))
  (fp_line (start 1.8 -1.8) (end -1.8 -1.8)
    (stroke (width 0.05) (type solid)) (layer "F.CrtYd") (tstamp 4c0a7fdc-f5af-4a72-9d80-74ac007ad0f6))
  (fp_line (start 1.8 19.55) (end 1.8 -1.8)
    (stroke (width 0.05) (type solid)) (layer "F.CrtYd") (tstamp ab440767-6178-4518-9822-6405683a34de))
  (fp_line (start -1.27 -0.635) (end -0.635 -1.27)
    (stroke (width 0.1) (type solid)) (layer "F.Fab") (tstamp 235b2d0c-d939-486d-a674-d482087b5bdf))
  (fp_line (start -1.27 19.05) (end -1.27 -0.635)
    (stroke (width 0.1) (type solid)) (layer "F.Fab") (tstamp 481547b8-4c57-416b-8cb6-85e4b96d2c6f))
  (fp_line (start -0.635 -1.27) (end 1.27 -1.27)
    (stroke (width 0.1) (type solid)) (layer "F.Fab") (tstamp d2bb4fbc-9d78-4495-ac06-1796e24b796c))
  (fp_line (start 1.27 -1.27) (end 1.27 19.05)
    (stroke (width 0.1) (type solid)) (layer "F.Fab") (tstamp f1fd780d-c1e0-4593-a3f3-33dc361eedab))
  (fp_line (start 1.27 19.05) (end -1.27 19.05)
    (stroke (width 0.1) (type solid)) (layer "F.Fab") (tstamp 20a85b68-5a84-4f8b-a689-6efb0fedaac4))
  (pad "1" thru_hole rect (at 0 0) (size 1.7 1.7) (drill 1) (layers "*.Cu" "*.Mask") (tstamp 6af255a2-0ca3-45eb-9aef-e08eabacab61))
  (pad "2" thru_hole oval (at 0 2.54) (size 1.7 1.7) (drill 1) (layers "*.Cu" "*.Mask") (tstamp ff657f04-ef47-4459-a075-b19482bc7e66))
  (pad "3" thru_hole oval (at 0 5.08) (size 1.7 1.7) (drill 1) (layers "*.Cu" "*.Mask") (tstamp 9f9dd16b-946c-47e2-bd41-db918d39543c))
  (pad "4" thru_hole oval (at 0 7.62) (size 1.7 1.7) (drill 1) (layers "*.Cu" "*.Mask") (tstamp 96deebfc-56d8-494b-bb8b-c804b2d9fac3))
  (pad "5" thru_hole oval (at 0 10.16) (size 1.7 1.7) (drill 1) (layers "*.Cu" "*.Mask") (tstamp ec742300-da39-41c3-882b-710f02be92e6))
  (pad "6" thru_hole oval (at 0 12.7) (size 1.7 1.7) (drill 1) (layers "*.Cu" "*.Mask") (tstamp 067442a4-5bba-4fba-8538-cd60101b84d4))
  (pad "7" thru_hole oval (at 0 15.24) (size 1.7 1.7) (drill 1) (layers "*.Cu" "*.Mask") (tstamp a4a20636-440b-4fb9-9c0d-1773d354adf3))
  (pad "8" thru_hole oval (at 0 17.78) (size 1.7 1.7) (drill 1) (layers "*.Cu" "*.Mask") (tstamp a3732d2c-ad8c-4009-b7a6-1acbce6b3a60))
)
